{
  "AssetSets": {
    "iOS": [
      {
        "ExpirationDate": "yyyy-mm-dd",
        "PostingDate": "2023-01-24",
        "ProductVersion": "16.3",
        "SupportedDevices": [
          "AppleTV11,1",
          "AppleTV14,1",
          "AppleTV5,3",
          "AppleTV6,2",
          "AudioAccessory1,1",
          "AudioAccessory1,2",
          "AudioAccessory5,1",
          "AudioAccessory6,1"
        ]
      },
      {
        "ExpirationDate": "yyyy-mm-dd",
        "PostingDate": "2023-01-23",
        "ProductVersion": "9.3",
        "SupportedDevices": [
          "Watch4,1",
          "Watch4,2",
          "Watch4,3",
          "Watch4,4",
          "Watch5,1",
          "Watch5,10",
          "Watch5,11",
          "Watch5,12",
          "Watch5,2",
          "Watch5,3",
          "Watch5,4",
          "Watch5,9",
          "Watch6,1",
          "Watch6,10",
          "Watch6,11",
          "Watch6,12",
          "Watch6,13",
          "Watch6,14",
          "Watch6,15",
          "Watch6,16",
          "Watch6,17",
          "Watch6,18",
          "Watch6,2",
          "Watch6,3",
          "Watch6,4",
          "Watch6,6",
          "Watch6,7",
          "Watch6,8",
          "Watch6,9"
        ]
      },
      {
        "ExpirationDate": "yyyy-mm-dd",
        "PostingDate": "2023-01-23",
        "ProductVersion": "12.5.7",
        "SupportedDevices": [
          "iPad4,1",
          "iPad4,2",
          "iPad4,3",
          "iPad4,4",
          "iPad4,5",
          "iPad4,6",
          "iPad4,7",
          "iPad4,8",
          "iPad4,9",
          "iPhone6,1",
          "iPhone6,2",
          "iPhone7,1",
          "iPhone7,2",
          "iPod7,1"
        ]
      },
      {
        "ExpirationDate": "yyyy-mm-dd",
        "PostingDate": "2023-01-23",
        "ProductVersion": "15.7.3",
        "SupportedDevices": [
          "iPad5,1",
          "iPad5,2",
          "iPad5,3",
          "iPad5,4",
          "iPhone8,1",
          "iPhone8,2",
          "iPhone8,4",
          "iPhone9,1",
          "iPhone9,2",
          "iPhone9,3",
          "iPhone9,4",
          "iPod9,1"
        ]
      },
      {
        "ExpirationDate": "yyyy-mm-dd",
        "PostingDate": "2023-01-23",
        "ProductVersion": "16.3",
        "SupportedDevices": [
          "iPad11,1",
          "iPad11,2",
          "iPad11,3",
          "iPad11,4",
          "iPad11,6",
          "iPad11,7",
          "iPad12,1",
          "iPad12,2",
          "iPad13,1",
          "iPad13,10",
          "iPad13,11",
          "iPad13,16",
          "iPad13,17",
          "iPad13,18",
          "iPad13,19",
          "iPad13,2",
          "iPad13,4",
          "iPad13,5",
          "iPad13,6",
          "iPad13,7",
          "iPad13,8",
          "iPad13,9",
          "iPad14,1",
          "iPad14,2",
          "iPad14,3",
          "iPad14,4",
          "iPad14,5",
          "iPad14,6",
          "iPad6,11",
          "iPad6,12",
          "iPad6,3",
          "iPad6,4",
          "iPad6,7",
          "iPad6,8",
          "iPad7,1",
          "iPad7,11",
          "iPad7,12",
          "iPad7,2",
          "iPad7,3",
          "iPad7,4",
          "iPad7,5",
          "iPad7,6",
          "iPad8,1",
          "iPad8,10",
          "iPad8,11",
          "iPad8,12",
          "iPad8,2",
          "iPad8,3",
          "iPad8,4",
          "iPad8,5",
          "iPad8,6",
          "iPad8,7",
          "iPad8,8",
          "iPad8,9",
          "iPhone10,1",
          "iPhone10,2",
          "iPhone10,3",
          "iPhone10,4",
          "iPhone10,5",
          "iPhone10,6",
          "iPhone11,2",
          "iPhone11,6",
          "iPhone11,8",
          "iPhone12,1",
          "iPhone12,3",
          "iPhone12,5",
          "iPhone12,8",
          "iPhone13,1",
          "iPhone13,2",
          "iPhone13,3",
          "iPhone13,4",
          "iPhone14,2",
          "iPhone14,3",
          "iPhone14,4",
          "iPhone14,5",
          "iPhone14,6",
          "iPhone14,7",
          "iPhone14,8",
          "iPhone15,2",
          "iPhone15,3"
        ]
      },
      {
        "ExpirationDate": "yyyy-mm-dd",
        "PostingDate": "2022-12-13",
        "ProductVersion": "15.7.2",
        "SupportedDevices": [
          "iPad11,1",
          "iPad11,2",
          "iPad11,3",
          "iPad11,4",
          "iPad11,6",
          "iPad11,7",
          "iPad12,1",
          "iPad12,2",
          "iPad13,1",
          "iPad13,10",
          "iPad13,11",
          "iPad13,16",
          "iPad13,17",
          "iPad13,2",
          "iPad13,4",
          "iPad13,5",
          "iPad13,6",
          "iPad13,7",
          "iPad13,8",
          "iPad13,9",
          "iPad14,1",
          "iPad14,2",
          "iPad6,11",
          "iPad6,12",
          "iPad6,3",
          "iPad6,4",
          "iPad6,7",
          "iPad6,8",
          "iPad7,1",
          "iPad7,11",
          "iPad7,12",
          "iPad7,2",
          "iPad7,3",
          "iPad7,4",
          "iPad7,5",
          "iPad7,6",
          "iPad8,1",
          "iPad8,10",
          "iPad8,11",
          "iPad8,12",
          "iPad8,2",
          "iPad8,3",
          "iPad8,4",
          "iPad8,5",
          "iPad8,6",
          "iPad8,7",
          "iPad8,8",
          "iPad8,9"
        ]
      },
      {
        "ExpirationDate": "yyyy-mm-dd",
        "PostingDate": "2022-12-13",
        "ProductVersion": "16.2",
        "SupportedDevices": [
          "AppleTV11,1",
          "AppleTV14,1",
          "AppleTV5,3",
          "AppleTV6,2",
          "AudioAccessory1,1",
          "AudioAccessory1,2",
          "AudioAccessory5,1"
        ]
      },
      {
        "ExpirationDate": "yyyy-mm-dd",
        "PostingDate": "2022-12-13",
        "ProductVersion": "9.2",
        "SupportedDevices": [
          "Watch4,1",
          "Watch4,2",
          "Watch4,3",
          "Watch4,4",
          "Watch5,1",
          "Watch5,10",
          "Watch5,11",
          "Watch5,12",
          "Watch5,2",
          "Watch5,3",
          "Watch5,4",
          "Watch5,9",
          "Watch6,1",
          "Watch6,10",
          "Watch6,11",
          "Watch6,12",
          "Watch6,13",
          "Watch6,14",
          "Watch6,15",
          "Watch6,16",
          "Watch6,17",
          "Watch6,18",
          "Watch6,2",
          "Watch6,3",
          "Watch6,4",
          "Watch6,6",
          "Watch6,7",
          "Watch6,8",
          "Watch6,9"
        ]
      },
      {
        "ExpirationDate": "yyyy-mm-dd",
        "PostingDate": "2022-12-13",
        "ProductVersion": "15.7.2",
        "SupportedDevices": [
          "iPad5,1",
          "iPad5,2",
          "iPad5,3",
          "iPad5,4",
          "iPhone8,1",
          "iPhone8,2",
          "iPhone8,4",
          "iPhone9,1",
          "iPhone9,2",
          "iPhone9,3",
          "iPhone9,4",
          "iPod9,1"
        ]
      },
      {
        "ExpirationDate": "yyyy-mm-dd",
        "PostingDate": "2022-12-13",
        "ProductVersion": "16.2",
        "SupportedDevices": [
          "iPad11,1",
          "iPad11,2",
          "iPad11,3",
          "iPad11,4",
          "iPad11,6",
          "iPad11,7",
          "iPad12,1",
          "iPad12,2",
          "iPad13,1",
          "iPad13,10",
          "iPad13,11",
          "iPad13,16",
          "iPad13,17",
          "iPad13,18",
          "iPad13,19",
          "iPad13,2",
          "iPad13,4",
          "iPad13,5",
          "iPad13,6",
          "iPad13,7",
          "iPad13,8",
          "iPad13,9",
          "iPad14,1",
          "iPad14,2",
          "iPad14,3",
          "iPad14,4",
          "iPad14,5",
          "iPad14,6",
          "iPad6,11",
          "iPad6,12",
          "iPad6,3",
          "iPad6,4",
          "iPad6,7",
          "iPad6,8",
          "iPad7,1",
          "iPad7,11",
          "iPad7,12",
          "iPad7,2",
          "iPad7,3",
          "iPad7,4",
          "iPad7,5",
          "iPad7,6",
          "iPad8,1",
          "iPad8,10",
          "iPad8,11",
          "iPad8,12",
          "iPad8,2",
          "iPad8,3",
          "iPad8,4",
          "iPad8,5",
          "iPad8,6",
          "iPad8,7",
          "iPad8,8",
          "iPad8,9",
          "iPhone10,1",
          "iPhone10,2",
          "iPhone10,3",
          "iPhone10,4",
          "iPhone10,5",
          "iPhone10,6",
          "iPhone11,2",
          "iPhone11,6",
          "iPhone11,8",
          "iPhone12,1",
          "iPhone12,3",
          "iPhone12,5",
          "iPhone12,8",
          "iPhone13,1",
          "iPhone13,2",
          "iPhone13,3",
          "iPhone13,4",
          "iPhone14,2",
          "iPhone14,3",
          "iPhone14,4",
          "iPhone14,5",
          "iPhone14,6",
          "iPhone14,7",
          "iPhone14,8",
          "iPhone15,2",
          "iPhone15,3"
        ]
      },
      {
        "ExpirationDate": "yyyy-mm-dd",
        "PostingDate": "2022-11-30",
        "ProductVersion": "16.1.2",
        "SupportedDevices": [
          "iPhone10,1",
          "iPhone10,2",
          "iPhone10,3",
          "iPhone10,4",
          "iPhone10,5",
          "iPhone10,6",
          "iPhone11,2",
          "iPhone11,6",
          "iPhone11,8",
          "iPhone12,1",
          "iPhone12,3",
          "iPhone12,5",
          "iPhone12,8",
          "iPhone13,1",
          "iPhone13,2",
          "iPhone13,3",
          "iPhone13,4",
          "iPhone14,2",
          "iPhone14,3",
          "iPhone14,4",
          "iPhone14,5",
          "iPhone14,6",
          "iPhone14,7",
          "iPhone14,8",
          "iPhone15,2",
          "iPhone15,3"
        ]
      },
      {
        "ExpirationDate": "yyyy-mm-dd",
        "PostingDate": "2022-11-16",
        "ProductVersion": "16.1.1",
        "SupportedDevices": [
          "AppleTV14,1"
        ]
      },
      {
        "ExpirationDate": "yyyy-mm-dd",
        "PostingDate": "2022-11-09",
        "ProductVersion": "16.1.1",
        "SupportedDevices": [
          "iPad11,1",
          "iPad11,2",
          "iPad11,3",
          "iPad11,4",
          "iPad11,6",
          "iPad11,7",
          "iPad12,1",
          "iPad12,2",
          "iPad13,1",
          "iPad13,10",
          "iPad13,11",
          "iPad13,16",
          "iPad13,17",
          "iPad13,18",
          "iPad13,19",
          "iPad13,2",
          "iPad13,4",
          "iPad13,5",
          "iPad13,6",
          "iPad13,7",
          "iPad13,8",
          "iPad13,9",
          "iPad14,1",
          "iPad14,2",
          "iPad14,3",
          "iPad14,4",
          "iPad14,5",
          "iPad14,6",
          "iPad6,11",
          "iPad6,12",
          "iPad6,3",
          "iPad6,4",
          "iPad6,7",
          "iPad6,8",
          "iPad7,1",
          "iPad7,11",
          "iPad7,12",
          "iPad7,2",
          "iPad7,3",
          "iPad7,4",
          "iPad7,5",
          "iPad7,6",
          "iPad8,1",
          "iPad8,10",
          "iPad8,11",
          "iPad8,12",
          "iPad8,2",
          "iPad8,3",
          "iPad8,4",
          "iPad8,5",
          "iPad8,6",
          "iPad8,7",
          "iPad8,8",
          "iPad8,9"
        ]
      },
      {
        "ExpirationDate": "yyyy-mm-dd",
        "PostingDate": "2022-11-09",
        "ProductVersion": "16.1.1",
        "SupportedDevices": [
          "iPhone10,1",
          "iPhone10,2",
          "iPhone10,3",
          "iPhone10,4",
          "iPhone10,5",
          "iPhone10,6",
          "iPhone11,2",
          "iPhone11,6",
          "iPhone11,8",
          "iPhone12,1",
          "iPhone12,3",
          "iPhone12,5",
          "iPhone12,8",
          "iPhone13,1",
          "iPhone13,2",
          "iPhone13,3",
          "iPhone13,4",
          "iPhone14,2",
          "iPhone14,3",
          "iPhone14,4",
          "iPhone14,5",
          "iPhone14,6",
          "iPhone14,7",
          "iPhone14,8",
          "iPhone15,2",
          "iPhone15,3"
        ]
      },
      {
        "ExpirationDate": "yyyy-mm-dd",
        "PostingDate": "2022-10-28",
        "ProductVersion": "12.5.6",
        "SupportedDevices": [
          "iPad4,1",
          "iPad4,2",
          "iPad4,3",
          "iPad4,4",
          "iPad4,5",
          "iPad4,6",
          "iPad4,7",
          "iPad4,8",
          "iPad4,9",
          "iPhone6,1",
          "iPhone6,2",
          "iPhone7,1",
          "iPhone7,2",
          "iPod7,1"
        ]
      },
      {
        "ExpirationDate": "yyyy-mm-dd",
        "PostingDate": "2022-10-28",
        "ProductVersion": "15.7.1",
        "SupportedDevices": [
          "iPad5,1",
          "iPad5,2",
          "iPad5,3",
          "iPad5,4",
          "iPhone8,1",
          "iPhone8,2",
          "iPhone8,4",
          "iPhone9,1",
          "iPhone9,2",
          "iPhone9,3",
          "iPhone9,4",
          "iPod9,1"
        ]
      },
      {
        "ExpirationDate": "yyyy-mm-dd",
        "PostingDate": "2022-10-28",
        "ProductVersion": "16.1",
        "SupportedDevices": [
          "iPad11,1",
          "iPad11,2",
          "iPad11,3",
          "iPad11,4",
          "iPad11,6",
          "iPad11,7",
          "iPad12,1",
          "iPad12,2",
          "iPad13,1",
          "iPad13,10",
          "iPad13,11",
          "iPad13,16",
          "iPad13,17",
          "iPad13,18",
          "iPad13,19",
          "iPad13,2",
          "iPad13,4",
          "iPad13,5",
          "iPad13,6",
          "iPad13,7",
          "iPad13,8",
          "iPad13,9",
          "iPad14,1",
          "iPad14,2",
          "iPad14,3",
          "iPad14,4",
          "iPad14,5",
          "iPad14,6",
          "iPad6,11",
          "iPad6,12",
          "iPad6,3",
          "iPad6,4",
          "iPad6,7",
          "iPad6,8",
          "iPad7,1",
          "iPad7,11",
          "iPad7,12",
          "iPad7,2",
          "iPad7,3",
          "iPad7,4",
          "iPad7,5",
          "iPad7,6",
          "iPad8,1",
          "iPad8,10",
          "iPad8,11",
          "iPad8,12",
          "iPad8,2",
          "iPad8,3",
          "iPad8,4",
          "iPad8,5",
          "iPad8,6",
          "iPad8,7",
          "iPad8,8",
          "iPad8,9",
          "iPhone10,1",
          "iPhone10,2",
          "iPhone10,3",
          "iPhone10,4",
          "iPhone10,5",
          "iPhone10,6",
          "iPhone11,2",
          "iPhone11,6",
          "iPhone11,8",
          "iPhone12,1",
          "iPhone12,3",
          "iPhone12,5",
          "iPhone12,8",
          "iPhone13,1",
          "iPhone13,2",
          "iPhone13,3",
          "iPhone13,4",
          "iPhone14,2",
          "iPhone14,3",
          "iPhone14,4",
          "iPhone14,5",
          "iPhone14,6",
          "iPhone14,7",
          "iPhone14,8",
          "iPhone15,2",
          "iPhone15,3"
        ]
      },
      {
        "ExpirationDate": "yyyy-mm-dd",
        "PostingDate": "2022-10-27",
        "ProductVersion": "15.7.1",
        "SupportedDevices": [
          "iPad11,1",
          "iPad11,2",
          "iPad11,3",
          "iPad11,4",
          "iPad11,6",
          "iPad11,7",
          "iPad12,1",
          "iPad12,2",
          "iPad13,1",
          "iPad13,10",
          "iPad13,11",
          "iPad13,16",
          "iPad13,17",
          "iPad13,2",
          "iPad13,4",
          "iPad13,5",
          "iPad13,6",
          "iPad13,7",
          "iPad13,8",
          "iPad13,9",
          "iPad14,1",
          "iPad14,2",
          "iPad6,11",
          "iPad6,12",
          "iPad6,3",
          "iPad6,4",
          "iPad6,7",
          "iPad6,8",
          "iPad7,1",
          "iPad7,11",
          "iPad7,12",
          "iPad7,2",
          "iPad7,3",
          "iPad7,4",
          "iPad7,5",
          "iPad7,6",
          "iPad8,1",
          "iPad8,10",
          "iPad8,11",
          "iPad8,12",
          "iPad8,2",
          "iPad8,3",
          "iPad8,4",
          "iPad8,5",
          "iPad8,6",
          "iPad8,7",
          "iPad8,8",
          "iPad8,9",
          "iPhone10,1",
          "iPhone10,2",
          "iPhone10,3",
          "iPhone10,4",
          "iPhone10,5",
          "iPhone10,6",
          "iPhone11,2",
          "iPhone11,6",
          "iPhone11,8",
          "iPhone12,1",
          "iPhone12,3",
          "iPhone12,5",
          "iPhone12,8",
          "iPhone13,1",
          "iPhone13,2",
          "iPhone13,3",
          "iPhone13,4",
          "iPhone14,2",
          "iPhone14,3",
          "iPhone14,4",
          "iPhone14,5",
          "iPhone14,6"
        ]
      },
      {
        "ExpirationDate": "yyyy-mm-dd",
        "PostingDate": "2022-10-24",
        "ProductVersion": "5.3.9",
        "SupportedDevices": [
          "Watch2,3",
          "Watch2,4",
          "Watch2,6",
          "Watch2,7",
          "Watch3,1",
          "Watch3,2",
          "Watch3,3",
          "Watch3,4",
          "Watch4,1",
          "Watch4,2",
          "Watch4,3",
          "Watch4,4"
        ]
      },
      {
        "ExpirationDate": "yyyy-mm-dd",
        "PostingDate": "2022-10-24",
        "ProductVersion": "6.3",
        "SupportedDevices": [
          "Watch2,3",
          "Watch2,4",
          "Watch2,6",
          "Watch2,7"
        ]
      },
      {
        "ExpirationDate": "yyyy-mm-dd",
        "PostingDate": "2022-10-24",
        "ProductVersion": "8.7",
        "SupportedDevices": [
          "Watch4,1",
          "Watch4,2",
          "Watch4,3",
          "Watch4,4",
          "Watch5,1",
          "Watch5,10",
          "Watch5,11",
          "Watch5,12",
          "Watch5,2",
          "Watch5,3",
          "Watch5,4",
          "Watch5,9",
          "Watch6,1",
          "Watch6,2",
          "Watch6,3",
          "Watch6,4",
          "Watch6,6",
          "Watch6,7",
          "Watch6,8",
          "Watch6,9"
        ]
      },
      {
        "ExpirationDate": "yyyy-mm-dd",
        "PostingDate": "2022-10-24",
        "ProductVersion": "8.7.1",
        "SupportedDevices": [
          "Watch3,1",
          "Watch3,2",
          "Watch3,3",
          "Watch3,4"
        ]
      },
      {
        "ExpirationDate": "yyyy-mm-dd",
        "PostingDate": "2022-10-24",
        "ProductVersion": "9.1",
        "SupportedDevices": [
          "Watch4,1",
          "Watch4,2",
          "Watch4,3",
          "Watch4,4",
          "Watch5,1",
          "Watch5,10",
          "Watch5,11",
          "Watch5,12",
          "Watch5,2",
          "Watch5,3",
          "Watch5,4",
          "Watch5,9",
          "Watch6,1",
          "Watch6,10",
          "Watch6,11",
          "Watch6,12",
          "Watch6,13",
          "Watch6,14",
          "Watch6,15",
          "Watch6,16",
          "Watch6,17",
          "Watch6,18",
          "Watch6,2",
          "Watch6,3",
          "Watch6,4",
          "Watch6,6",
          "Watch6,7",
          "Watch6,8",
          "Watch6,9"
        ]
      },
      {
        "ExpirationDate": "yyyy-mm-dd",
        "PostingDate": "2022-10-24",
        "ProductVersion": "16.1",
        "SupportedDevices": [
          "AppleTV11,1",
          "AppleTV5,3",
          "AppleTV6,2",
          "AudioAccessory1,1",
          "AudioAccessory1,2",
          "AudioAccessory5,1"
        ]
      },
      {
        "ExpirationDate": "yyyy-mm-dd",
        "PostingDate": "2022-10-24",
        "ProductVersion": "16.1",
        "SupportedDevices": [
          "AppleTV14,1"
        ]
      }
    ],
    "macOS": [
      {
        "ExpirationDate": "yyyy-mm-dd",
        "PostingDate": "2023-01-23",
        "ProductVersion": "11.7.3",
        "SupportedDevices": [
          "J132AP",
          "J137AP",
          "J140AAP",
          "J140KAP",
          "J152FAP",
          "J160AP",
          "J174AP",
          "J185AP",
          "J185FAP",
          "J213AP",
          "J214AP",
          "J214KAP",
          "J215AP",
          "J223AP",
          "J230AP",
          "J230KAP",
          "J274AP",
          "J293AP",
          "J313AP",
          "J456AP",
          "J457AP",
          "J680AP",
          "J780AP",
          "Mac-06F11F11946D27C5",
          "Mac-06F11FD93F0323C5",
          "Mac-0CFF9C7C2B63DF8D",
          "Mac-112818653D3AABFC",
          "Mac-112B0A653D3AAB9C",
          "Mac-189A3D4F975D5FFC",
          "Mac-1E7E29AD0135F9BC",
          "Mac-226CB3C6A851A671",
          "Mac-27AD2F918AE68F61",
          "Mac-2BD1B31983FE1663",
          "Mac-35C1E88140C3E6CF",
          "Mac-35C5E08120C7EEAF",
          "Mac-36B6B6DA9CFCD881",
          "Mac-3CBD00234E554E41",
          "Mac-42FD25EABCABB274",
          "Mac-473D31EABEB93F9B",
          "Mac-4B682C642B45593E",
          "Mac-50619A408DB004DA",
          "Mac-53FDB3D8DB8CA971",
          "Mac-551B86E5744E2388",
          "Mac-5A49A77366F81C72",
          "Mac-5F9802EFE386AA28",
          "Mac-63001698E7A34814",
          "Mac-65CE76090165799A",
          "Mac-66E35819EE2D0D05",
          "Mac-747B1AEFF11738BE",
          "Mac-77F17D7DA9285301",
          "Mac-7BA5B2D9E42DDD94",
          "Mac-7BA5B2DFE22DDD8C",
          "Mac-7DF21CB3ED6977E5",
          "Mac-81E3E92DD6088272",
          "Mac-827FAC58A8FDFA22",
          "Mac-827FB448E656EC26",
          "Mac-90BE64C3CB5A9AEB",
          "Mac-937A206F2EE63C01",
          "Mac-937CB26E2E02BB01",
          "Mac-9394BDF4BF862EE7",
          "Mac-9AE82516C7C6B903",
          "Mac-9F18E312C5C2BF0B",
          "Mac-A369DDC4E67F1C45",
          "Mac-A5C67F76ED83108C",
          "Mac-A61BADE1FDAD7B05",
          "Mac-AA95B1DDAB278B95",
          "Mac-AF89B6D9451A490B",
          "Mac-B4831CEBD52A0C4C",
          "Mac-B809C3757DA9BB8D",
          "Mac-BE088AF8C5EB4FA2",
          "Mac-BE0E8AC46FE800CC",
          "Mac-C6F71043CEAA02A6",
          "Mac-CAD6701F7CEA0921",
          "Mac-CF21D135A7D34AA6",
          "Mac-CFF7D910A743CAAF",
          "Mac-DB15BD556843C820",
          "Mac-E1008331FDC96864",
          "Mac-E43C1C25D4880AD6",
          "Mac-E7203C0F68AA0004",
          "Mac-EE2EBD4B90B839A8",
          "Mac-F305150B0C7DEEEF",
          "Mac-F60DEB81FF30ACF6",
          "Mac-FA842E06C61E91C5",
          "Mac-FFE5EF870D7BA81A",
          "VMM-x86_64",
          "X589AMLUAP",
          "X589ICLYAP",
          "X86LEGACYAP"
        ]
      },
      {
        "ExpirationDate": "yyyy-mm-dd",
        "PostingDate": "2023-01-23",
        "ProductVersion": "12.6.3",
        "SupportedDevices": [
          "J132AP",
          "J137AP",
          "J140AAP",
          "J140KAP",
          "J152FAP",
          "J160AP",
          "J174AP",
          "J185AP",
          "J185FAP",
          "J213AP",
          "J214KAP",
          "J215AP",
          "J223AP",
          "J230KAP",
          "J274AP",
          "J293AP",
          "J313AP",
          "J314cAP",
          "J314sAP",
          "J316cAP",
          "J316sAP",
          "J375cAP",
          "J375dAP",
          "J413AP",
          "J456AP",
          "J457AP",
          "J493AP",
          "J680AP",
          "J780AP",
          "Mac-06F11F11946D27C5",
          "Mac-06F11FD93F0323C5",
          "Mac-1E7E29AD0135F9BC",
          "Mac-35C5E08120C7EEAF",
          "Mac-473D31EABEB93F9B",
          "Mac-4B682C642B45593E",
          "Mac-551B86E5744E2388",
          "Mac-63001698E7A34814",
          "Mac-65CE76090165799A",
          "Mac-66E35819EE2D0D05",
          "Mac-77F17D7DA9285301",
          "Mac-937A206F2EE63C01",
          "Mac-937CB26E2E02BB01",
          "Mac-9AE82516C7C6B903",
          "Mac-9F18E312C5C2BF0B",
          "Mac-A369DDC4E67F1C45",
          "Mac-A5C67F76ED83108C",
          "Mac-AA95B1DDAB278B95",
          "Mac-B4831CEBD52A0C4C",
          "Mac-B809C3757DA9BB8D",
          "Mac-BE088AF8C5EB4FA2",
          "Mac-CAD6701F7CEA0921",
          "Mac-DB15BD556843C820",
          "Mac-E43C1C25D4880AD6",
          "Mac-EE2EBD4B90B839A8",
          "Mac-F60DEB81FF30ACF6",
          "Mac-FFE5EF870D7BA81A",
          "VMA2MACOSAP",
          "VMM-x86_64"
        ]
      },
      {
        "ExpirationDate": "yyyy-mm-dd",
        "PostingDate": "2023-01-23",
        "ProductVersion": "13.2",
        "SupportedDevices": [
          "J132AP",
          "J137AP",
          "J140AAP",
          "J140KAP",
          "J152FAP",
          "J160AP",
          "J174AP",
          "J185AP",
          "J185FAP",
          "J213AP",
          "J214KAP",
          "J215AP",
          "J223AP",
          "J230KAP",
          "J274AP",
          "J293AP",
          "J313AP",
          "J314cAP",
          "J314sAP",
          "J316cAP",
          "J316sAP",
          "J375cAP",
          "J375dAP",
          "J413AP",
          "J414cAP",
          "J414sAP",
          "J416cAP",
          "J416sAP",
          "J456AP",
          "J457AP",
          "J473AP",
          "J474sAP",
          "J493AP",
          "J680AP",
          "J780AP",
          "Mac-1E7E29AD0135F9BC",
          "Mac-4B682C642B45593E",
          "Mac-551B86E5744E2388",
          "Mac-63001698E7A34814",
          "Mac-77F17D7DA9285301",
          "Mac-937A206F2EE63C01",
          "Mac-AA95B1DDAB278B95",
          "Mac-B4831CEBD52A0C4C",
          "Mac-BE088AF8C5EB4FA2",
          "Mac-CAD6701F7CEA0921",
          "Mac-EE2EBD4B90B839A8",
          "VMA2MACOSAP",
          "VMM-x86_64"
        ]
      },
      {
        "ExpirationDate": "yyyy-mm-dd",
        "PostingDate": "2022-12-13",
        "ProductVersion": "11.7.2",
        "SupportedDevices": [
          "J132AP",
          "J137AP",
          "J140AAP",
          "J140KAP",
          "J152FAP",
          "J160AP",
          "J174AP",
          "J185AP",
          "J185FAP",
          "J213AP",
          "J214AP",
          "J214KAP",
          "J215AP",
          "J223AP",
          "J230AP",
          "J230KAP",
          "J274AP",
          "J293AP",
          "J313AP",
          "J456AP",
          "J457AP",
          "J680AP",
          "J780AP",
          "Mac-06F11F11946D27C5",
          "Mac-06F11FD93F0323C5",
          "Mac-0CFF9C7C2B63DF8D",
          "Mac-112818653D3AABFC",
          "Mac-112B0A653D3AAB9C",
          "Mac-189A3D4F975D5FFC",
          "Mac-1E7E29AD0135F9BC",
          "Mac-226CB3C6A851A671",
          "Mac-27AD2F918AE68F61",
          "Mac-2BD1B31983FE1663",
          "Mac-35C1E88140C3E6CF",
          "Mac-35C5E08120C7EEAF",
          "Mac-36B6B6DA9CFCD881",
          "Mac-3CBD00234E554E41",
          "Mac-42FD25EABCABB274",
          "Mac-473D31EABEB93F9B",
          "Mac-4B682C642B45593E",
          "Mac-50619A408DB004DA",
          "Mac-53FDB3D8DB8CA971",
          "Mac-551B86E5744E2388",
          "Mac-5A49A77366F81C72",
          "Mac-5F9802EFE386AA28",
          "Mac-63001698E7A34814",
          "Mac-65CE76090165799A",
          "Mac-66E35819EE2D0D05",
          "Mac-747B1AEFF11738BE",
          "Mac-77F17D7DA9285301",
          "Mac-7BA5B2D9E42DDD94",
          "Mac-7BA5B2DFE22DDD8C",
          "Mac-7DF21CB3ED6977E5",
          "Mac-81E3E92DD6088272",
          "Mac-827FAC58A8FDFA22",
          "Mac-827FB448E656EC26",
          "Mac-90BE64C3CB5A9AEB",
          "Mac-937A206F2EE63C01",
          "Mac-937CB26E2E02BB01",
          "Mac-9394BDF4BF862EE7",
          "Mac-9AE82516C7C6B903",
          "Mac-9F18E312C5C2BF0B",
          "Mac-A369DDC4E67F1C45",
          "Mac-A5C67F76ED83108C",
          "Mac-A61BADE1FDAD7B05",
          "Mac-AA95B1DDAB278B95",
          "Mac-AF89B6D9451A490B",
          "Mac-B4831CEBD52A0C4C",
          "Mac-B809C3757DA9BB8D",
          "Mac-BE088AF8C5EB4FA2",
          "Mac-BE0E8AC46FE800CC",
          "Mac-C6F71043CEAA02A6",
          "Mac-CAD6701F7CEA0921",
          "Mac-CF21D135A7D34AA6",
          "Mac-CFF7D910A743CAAF",
          "Mac-DB15BD556843C820",
          "Mac-E1008331FDC96864",
          "Mac-E43C1C25D4880AD6",
          "Mac-E7203C0F68AA0004",
          "Mac-EE2EBD4B90B839A8",
          "Mac-F305150B0C7DEEEF",
          "Mac-F60DEB81FF30ACF6",
          "Mac-FA842E06C61E91C5",
          "Mac-FFE5EF870D7BA81A",
          "VMM-x86_64",
          "X589AMLUAP",
          "X589ICLYAP",
          "X86LEGACYAP"
        ]
      },
      {
        "ExpirationDate": "yyyy-mm-dd",
        "PostingDate": "2022-12-13",
        "ProductVersion": "12.6.2",
        "SupportedDevices": [
          "J132AP",
          "J137AP",
          "J140AAP",
          "J140KAP",
          "J152FAP",
          "J160AP",
          "J174AP",
          "J185AP",
          "J185FAP",
          "J213AP",
          "J214KAP",
          "J215AP",
          "J223AP",
          "J230KAP",
          "J274AP",
          "J293AP",
          "J313AP",
          "J314cAP",
          "J314sAP",
          "J316cAP",
          "J316sAP",
          "J375cAP",
          "J375dAP",
          "J413AP",
          "J456AP",
          "J457AP",
          "J493AP",
          "J680AP",
          "J780AP",
          "Mac-06F11F11946D27C5",
          "Mac-06F11FD93F0323C5",
          "Mac-1E7E29AD0135F9BC",
          "Mac-35C5E08120C7EEAF",
          "Mac-473D31EABEB93F9B",
          "Mac-4B682C642B45593E",
          "Mac-551B86E5744E2388",
          "Mac-63001698E7A34814",
          "Mac-65CE76090165799A",
          "Mac-66E35819EE2D0D05",
          "Mac-77F17D7DA9285301",
          "Mac-937A206F2EE63C01",
          "Mac-937CB26E2E02BB01",
          "Mac-9AE82516C7C6B903",
          "Mac-9F18E312C5C2BF0B",
          "Mac-A369DDC4E67F1C45",
          "Mac-A5C67F76ED83108C",
          "Mac-AA95B1DDAB278B95",
          "Mac-B4831CEBD52A0C4C",
          "Mac-B809C3757DA9BB8D",
          "Mac-BE088AF8C5EB4FA2",
          "Mac-CAD6701F7CEA0921",
          "Mac-DB15BD556843C820",
          "Mac-E43C1C25D4880AD6",
          "Mac-EE2EBD4B90B839A8",
          "Mac-F60DEB81FF30ACF6",
          "Mac-FFE5EF870D7BA81A",
          "VMA2MACOSAP",
          "VMM-x86_64"
        ]
      },
      {
        "ExpirationDate": "yyyy-mm-dd",
        "PostingDate": "2022-12-13",
        "ProductVersion": "13.1",
        "SupportedDevices": [
          "J132AP",
          "J137AP",
          "J140AAP",
          "J140KAP",
          "J152FAP",
          "J160AP",
          "J174AP",
          "J185AP",
          "J185FAP",
          "J213AP",
          "J214KAP",
          "J215AP",
          "J223AP",
          "J230KAP",
          "J274AP",
          "J293AP",
          "J313AP",
          "J314cAP",
          "J314sAP",
          "J316cAP",
          "J316sAP",
          "J375cAP",
          "J375dAP",
          "J413AP",
          "J456AP",
          "J457AP",
          "J493AP",
          "J680AP",
          "J780AP",
          "Mac-1E7E29AD0135F9BC",
          "Mac-4B682C642B45593E",
          "Mac-551B86E5744E2388",
          "Mac-63001698E7A34814",
          "Mac-77F17D7DA9285301",
          "Mac-937A206F2EE63C01",
          "Mac-AA95B1DDAB278B95",
          "Mac-B4831CEBD52A0C4C",
          "Mac-BE088AF8C5EB4FA2",
          "Mac-CAD6701F7CEA0921",
          "Mac-EE2EBD4B90B839A8",
          "VMA2MACOSAP",
          "VMM-x86_64"
        ]
      },
      {
        "ExpirationDate": "yyyy-mm-dd",
        "PostingDate": "2022-11-09",
        "ProductVersion": "13.0.1",
        "SupportedDevices": [
          "J132AP",
          "J137AP",
          "J140AAP",
          "J140KAP",
          "J152FAP",
          "J160AP",
          "J174AP",
          "J185AP",
          "J185FAP",
          "J213AP",
          "J214KAP",
          "J215AP",
          "J223AP",
          "J230KAP",
          "J274AP",
          "J293AP",
          "J313AP",
          "J314cAP",
          "J314sAP",
          "J316cAP",
          "J316sAP",
          "J375cAP",
          "J375dAP",
          "J413AP",
          "J456AP",
          "J457AP",
          "J493AP",
          "J680AP",
          "J780AP",
          "Mac-1E7E29AD0135F9BC",
          "Mac-4B682C642B45593E",
          "Mac-551B86E5744E2388",
          "Mac-63001698E7A34814",
          "Mac-77F17D7DA9285301",
          "Mac-937A206F2EE63C01",
          "Mac-AA95B1DDAB278B95",
          "Mac-B4831CEBD52A0C4C",
          "Mac-BE088AF8C5EB4FA2",
          "Mac-CAD6701F7CEA0921",
          "Mac-EE2EBD4B90B839A8",
          "VMA2MACOSAP",
          "VMM-x86_64"
        ]
      },
      {
        "ExpirationDate": "yyyy-mm-dd",
        "PostingDate": "2022-10-24",
        "ProductVersion": "11.7.1",
        "SupportedDevices": [
          "J132AP",
          "J137AP",
          "J140AAP",
          "J140KAP",
          "J152FAP",
          "J160AP",
          "J174AP",
          "J185AP",
          "J185FAP",
          "J213AP",
          "J214AP",
          "J214KAP",
          "J215AP",
          "J223AP",
          "J230AP",
          "J230KAP",
          "J274AP",
          "J293AP",
          "J313AP",
          "J456AP",
          "J457AP",
          "J680AP",
          "J780AP",
          "Mac-06F11F11946D27C5",
          "Mac-06F11FD93F0323C5",
          "Mac-0CFF9C7C2B63DF8D",
          "Mac-112818653D3AABFC",
          "Mac-112B0A653D3AAB9C",
          "Mac-189A3D4F975D5FFC",
          "Mac-1E7E29AD0135F9BC",
          "Mac-226CB3C6A851A671",
          "Mac-27AD2F918AE68F61",
          "Mac-2BD1B31983FE1663",
          "Mac-35C1E88140C3E6CF",
          "Mac-35C5E08120C7EEAF",
          "Mac-36B6B6DA9CFCD881",
          "Mac-3CBD00234E554E41",
          "Mac-42FD25EABCABB274",
          "Mac-473D31EABEB93F9B",
          "Mac-4B682C642B45593E",
          "Mac-50619A408DB004DA",
          "Mac-53FDB3D8DB8CA971",
          "Mac-551B86E5744E2388",
          "Mac-5A49A77366F81C72",
          "Mac-5F9802EFE386AA28",
          "Mac-63001698E7A34814",
          "Mac-65CE76090165799A",
          "Mac-66E35819EE2D0D05",
          "Mac-747B1AEFF11738BE",
          "Mac-77F17D7DA9285301",
          "Mac-7BA5B2D9E42DDD94",
          "Mac-7BA5B2DFE22DDD8C",
          "Mac-7DF21CB3ED6977E5",
          "Mac-81E3E92DD6088272",
          "Mac-827FAC58A8FDFA22",
          "Mac-827FB448E656EC26",
          "Mac-90BE64C3CB5A9AEB",
          "Mac-937A206F2EE63C01",
          "Mac-937CB26E2E02BB01",
          "Mac-9394BDF4BF862EE7",
          "Mac-9AE82516C7C6B903",
          "Mac-9F18E312C5C2BF0B",
          "Mac-A369DDC4E67F1C45",
          "Mac-A5C67F76ED83108C",
          "Mac-A61BADE1FDAD7B05",
          "Mac-AA95B1DDAB278B95",
          "Mac-AF89B6D9451A490B",
          "Mac-B4831CEBD52A0C4C",
          "Mac-B809C3757DA9BB8D",
          "Mac-BE088AF8C5EB4FA2",
          "Mac-BE0E8AC46FE800CC",
          "Mac-C6F71043CEAA02A6",
          "Mac-CAD6701F7CEA0921",
          "Mac-CF21D135A7D34AA6",
          "Mac-CFF7D910A743CAAF",
          "Mac-DB15BD556843C820",
          "Mac-E1008331FDC96864",
          "Mac-E43C1C25D4880AD6",
          "Mac-E7203C0F68AA0004",
          "Mac-EE2EBD4B90B839A8",
          "Mac-F305150B0C7DEEEF",
          "Mac-F60DEB81FF30ACF6",
          "Mac-FA842E06C61E91C5",
          "Mac-FFE5EF870D7BA81A",
          "VMM-x86_64",
          "X589AMLUAP",
          "X589ICLYAP",
          "X86LEGACYAP"
        ]
      },
      {
        "ExpirationDate": "yyyy-mm-dd",
        "PostingDate": "2022-10-24",
        "ProductVersion": "12.6.1",
        "SupportedDevices": [
          "J132AP",
          "J137AP",
          "J140AAP",
          "J140KAP",
          "J152FAP",
          "J160AP",
          "J174AP",
          "J185AP",
          "J185FAP",
          "J213AP",
          "J214KAP",
          "J215AP",
          "J223AP",
          "J230KAP",
          "J274AP",
          "J293AP",
          "J313AP",
          "J314cAP",
          "J314sAP",
          "J316cAP",
          "J316sAP",
          "J375cAP",
          "J375dAP",
          "J413AP",
          "J456AP",
          "J457AP",
          "J493AP",
          "J680AP",
          "J780AP",
          "Mac-06F11F11946D27C5",
          "Mac-06F11FD93F0323C5",
          "Mac-1E7E29AD0135F9BC",
          "Mac-35C5E08120C7EEAF",
          "Mac-473D31EABEB93F9B",
          "Mac-4B682C642B45593E",
          "Mac-551B86E5744E2388",
          "Mac-63001698E7A34814",
          "Mac-65CE76090165799A",
          "Mac-66E35819EE2D0D05",
          "Mac-77F17D7DA9285301",
          "Mac-937A206F2EE63C01",
          "Mac-937CB26E2E02BB01",
          "Mac-9AE82516C7C6B903",
          "Mac-9F18E312C5C2BF0B",
          "Mac-A369DDC4E67F1C45",
          "Mac-A5C67F76ED83108C",
          "Mac-AA95B1DDAB278B95",
          "Mac-B4831CEBD52A0C4C",
          "Mac-B809C3757DA9BB8D",
          "Mac-BE088AF8C5EB4FA2",
          "Mac-CAD6701F7CEA0921",
          "Mac-DB15BD556843C820",
          "Mac-E43C1C25D4880AD6",
          "Mac-EE2EBD4B90B839A8",
          "Mac-F60DEB81FF30ACF6",
          "Mac-FFE5EF870D7BA81A",
          "VMA2MACOSAP",
          "VMM-x86_64"
        ]
      },
      {
        "ExpirationDate": "yyyy-mm-dd",
        "PostingDate": "2022-10-24",
        "ProductVersion": "13.0",
        "SupportedDevices": [
          "J132AP",
          "J137AP",
          "J140AAP",
          "J140KAP",
          "J152FAP",
          "J160AP",
          "J174AP",
          "J185AP",
          "J185FAP",
          "J213AP",
          "J214KAP",
          "J215AP",
          "J223AP",
          "J230KAP",
          "J274AP",
          "J293AP",
          "J313AP",
          "J314cAP",
          "J314sAP",
          "J316cAP",
          "J316sAP",
          "J375cAP",
          "J375dAP",
          "J413AP",
          "J456AP",
          "J457AP",
          "J493AP",
          "J680AP",
          "J780AP",
          "Mac-1E7E29AD0135F9BC",
          "Mac-4B682C642B45593E",
          "Mac-551B86E5744E2388",
          "Mac-63001698E7A34814",
          "Mac-77F17D7DA9285301",
          "Mac-937A206F2EE63C01",
          "Mac-AA95B1DDAB278B95",
          "Mac-B4831CEBD52A0C4C",
          "Mac-BE088AF8C5EB4FA2",
          "Mac-CAD6701F7CEA0921",
          "Mac-EE2EBD4B90B839A8",
          "VMA2MACOSAP",
          "VMM-x86_64"
        ]
      }
    ]
  },
  "PublicAssetSets": {
    "iOS": [
      {
        "ExpirationDate": "yyyy-mm-dd",
        "PostingDate": "2023-01-24",
        "ProductVersion": "16.3",
        "SupportedDevices": [
          "AppleTV11,1",
          "AppleTV14,1",
          "AppleTV5,3",
          "AppleTV6,2",
          "AudioAccessory1,1",
          "AudioAccessory1,2",
          "AudioAccessory5,1",
          "AudioAccessory6,1"
        ]
      },
      {
        "ExpirationDate": "yyyy-mm-dd",
        "PostingDate": "2023-01-23",
        "ProductVersion": "5.3.9",
        "SupportedDevices": [
          "Watch2,3",
          "Watch2,4",
          "Watch2,6",
          "Watch2,7",
          "Watch3,1",
          "Watch3,2",
          "Watch3,3",
          "Watch3,4",
          "Watch4,1",
          "Watch4,2",
          "Watch4,3",
          "Watch4,4"
        ]
      },
      {
        "ExpirationDate": "yyyy-mm-dd",
        "PostingDate": "2023-01-23",
        "ProductVersion": "6.3",
        "SupportedDevices": [
          "Watch2,3",
          "Watch2,4",
          "Watch2,6",
          "Watch2,7"
        ]
      },
      {
        "ExpirationDate": "yyyy-mm-dd",
        "PostingDate": "2023-01-23",
        "ProductVersion": "8.7",
        "SupportedDevices": [
          "Watch4,1",
          "Watch4,2",
          "Watch4,3",
          "Watch4,4",
          "Watch5,1",
          "Watch5,10",
          "Watch5,11",
          "Watch5,12",
          "Watch5,2",
          "Watch5,3",
          "Watch5,4",
          "Watch5,9",
          "Watch6,1",
          "Watch6,2",
          "Watch6,3",
          "Watch6,4",
          "Watch6,6",
          "Watch6,7",
          "Watch6,8",
          "Watch6,9"
        ]
      },
      {
        "ExpirationDate": "yyyy-mm-dd",
        "PostingDate": "2023-01-23",
        "ProductVersion": "8.7.1",
        "SupportedDevices": [
          "Watch3,1",
          "Watch3,2",
          "Watch3,3",
          "Watch3,4"
        ]
      },
      {
        "ExpirationDate": "yyyy-mm-dd",
        "PostingDate": "2023-01-23",
        "ProductVersion": "9.3",
        "SupportedDevices": [
          "Watch4,1",
          "Watch4,2",
          "Watch4,3",
          "Watch4,4",
          "Watch5,1",
          "Watch5,10",
          "Watch5,11",
          "Watch5,12",
          "Watch5,2",
          "Watch5,3",
          "Watch5,4",
          "Watch5,9",
          "Watch6,1",
          "Watch6,10",
          "Watch6,11",
          "Watch6,12",
          "Watch6,13",
          "Watch6,14",
          "Watch6,15",
          "Watch6,16",
          "Watch6,17",
          "Watch6,18",
          "Watch6,2",
          "Watch6,3",
          "Watch6,4",
          "Watch6,6",
          "Watch6,7",
          "Watch6,8",
          "Watch6,9"
        ]
      },
      {
        "ExpirationDate": "yyyy-mm-dd",
        "PostingDate": "2023-01-23",
        "ProductVersion": "12.5.7",
        "SupportedDevices": [
          "iPad4,1",
          "iPad4,2",
          "iPad4,3",
          "iPad4,4",
          "iPad4,5",
          "iPad4,6",
          "iPad4,7",
          "iPad4,8",
          "iPad4,9",
          "iPhone6,1",
          "iPhone6,2",
          "iPhone7,1",
          "iPhone7,2",
          "iPod7,1"
        ]
      },
      {
        "ExpirationDate": "yyyy-mm-dd",
        "PostingDate": "2023-01-23",
        "ProductVersion": "15.7.3",
        "SupportedDevices": [
          "iPad5,1",
          "iPad5,2",
          "iPad5,3",
          "iPad5,4",
          "iPhone8,1",
          "iPhone8,2",
          "iPhone8,4",
          "iPhone9,1",
          "iPhone9,2",
          "iPhone9,3",
          "iPhone9,4",
          "iPod9,1"
        ]
      },
      {
        "ExpirationDate": "yyyy-mm-dd",
        "PostingDate": "2023-01-23",
        "ProductVersion": "16.3",
        "SupportedDevices": [
          "iPad11,1",
          "iPad11,2",
          "iPad11,3",
          "iPad11,4",
          "iPad11,6",
          "iPad11,7",
          "iPad12,1",
          "iPad12,2",
          "iPad13,1",
          "iPad13,10",
          "iPad13,11",
          "iPad13,16",
          "iPad13,17",
          "iPad13,18",
          "iPad13,19",
          "iPad13,2",
          "iPad13,4",
          "iPad13,5",
          "iPad13,6",
          "iPad13,7",
          "iPad13,8",
          "iPad13,9",
          "iPad14,1",
          "iPad14,2",
          "iPad14,3",
          "iPad14,4",
          "iPad14,5",
          "iPad14,6",
          "iPad6,11",
          "iPad6,12",
          "iPad6,3",
          "iPad6,4",
          "iPad6,7",
          "iPad6,8",
          "iPad7,1",
          "iPad7,11",
          "iPad7,12",
          "iPad7,2",
          "iPad7,3",
          "iPad7,4",
          "iPad7,5",
          "iPad7,6",
          "iPad8,1",
          "iPad8,10",
          "iPad8,11",
          "iPad8,12",
          "iPad8,2",
          "iPad8,3",
          "iPad8,4",
          "iPad8,5",
          "iPad8,6",
          "iPad8,7",
          "iPad8,8",
          "iPad8,9",
          "iPhone10,1",
          "iPhone10,2",
          "iPhone10,3",
          "iPhone10,4",
          "iPhone10,5",
          "iPhone10,6",
          "iPhone11,2",
          "iPhone11,6",
          "iPhone11,8",
          "iPhone12,1",
          "iPhone12,3",
          "iPhone12,5",
          "iPhone12,8",
          "iPhone13,1",
          "iPhone13,2",
          "iPhone13,3",
          "iPhone13,4",
          "iPhone14,2",
          "iPhone14,3",
          "iPhone14,4",
          "iPhone14,5",
          "iPhone14,6",
          "iPhone14,7",
          "iPhone14,8",
          "iPhone15,2",
          "iPhone15,3"
        ]
      },
      {
        "ExpirationDate": "yyyy-mm-dd",
        "PostingDate": "2022-12-13",
        "ProductVersion": "15.7.2",
        "SupportedDevices": [
          "iPad11,1",
          "iPad11,2",
          "iPad11,3",
          "iPad11,4",
          "iPad11,6",
          "iPad11,7",
          "iPad12,1",
          "iPad12,2",
          "iPad13,1",
          "iPad13,10",
          "iPad13,11",
          "iPad13,16",
          "iPad13,17",
          "iPad13,2",
          "iPad13,4",
          "iPad13,5",
          "iPad13,6",
          "iPad13,7",
          "iPad13,8",
          "iPad13,9",
          "iPad14,1",
          "iPad14,2",
          "iPad6,11",
          "iPad6,12",
          "iPad6,3",
          "iPad6,4",
          "iPad6,7",
          "iPad6,8",
          "iPad7,1",
          "iPad7,11",
          "iPad7,12",
          "iPad7,2",
          "iPad7,3",
          "iPad7,4",
          "iPad7,5",
          "iPad7,6",
          "iPad8,1",
          "iPad8,10",
          "iPad8,11",
          "iPad8,12",
          "iPad8,2",
          "iPad8,3",
          "iPad8,4",
          "iPad8,5",
          "iPad8,6",
          "iPad8,7",
          "iPad8,8",
          "iPad8,9"
        ]
      }
    ],
    "macOS": [
      {
        "ExpirationDate": "yyyy-mm-dd",
        "PostingDate": "2023-01-23",
        "ProductVersion": "11.7.3",
        "SupportedDevices": [
          "J132AP",
          "J137AP",
          "J140AAP",
          "J140KAP",
          "J152FAP",
          "J160AP",
          "J174AP",
          "J185AP",
          "J185FAP",
          "J213AP",
          "J214AP",
          "J214KAP",
          "J215AP",
          "J223AP",
          "J230AP",
          "J230KAP",
          "J274AP",
          "J293AP",
          "J313AP",
          "J456AP",
          "J457AP",
          "J680AP",
          "J780AP",
          "Mac-06F11F11946D27C5",
          "Mac-06F11FD93F0323C5",
          "Mac-0CFF9C7C2B63DF8D",
          "Mac-112818653D3AABFC",
          "Mac-112B0A653D3AAB9C",
          "Mac-189A3D4F975D5FFC",
          "Mac-1E7E29AD0135F9BC",
          "Mac-226CB3C6A851A671",
          "Mac-27AD2F918AE68F61",
          "Mac-2BD1B31983FE1663",
          "Mac-35C1E88140C3E6CF",
          "Mac-35C5E08120C7EEAF",
          "Mac-36B6B6DA9CFCD881",
          "Mac-3CBD00234E554E41",
          "Mac-42FD25EABCABB274",
          "Mac-473D31EABEB93F9B",
          "Mac-4B682C642B45593E",
          "Mac-50619A408DB004DA",
          "Mac-53FDB3D8DB8CA971",
          "Mac-551B86E5744E2388",
          "Mac-5A49A77366F81C72",
          "Mac-5F9802EFE386AA28",
          "Mac-63001698E7A34814",
          "Mac-65CE76090165799A",
          "Mac-66E35819EE2D0D05",
          "Mac-747B1AEFF11738BE",
          "Mac-77F17D7DA9285301",
          "Mac-7BA5B2D9E42DDD94",
          "Mac-7BA5B2DFE22DDD8C",
          "Mac-7DF21CB3ED6977E5",
          "Mac-81E3E92DD6088272",
          "Mac-827FAC58A8FDFA22",
          "Mac-827FB448E656EC26",
          "Mac-90BE64C3CB5A9AEB",
          "Mac-937A206F2EE63C01",
          "Mac-937CB26E2E02BB01",
          "Mac-9394BDF4BF862EE7",
          "Mac-9AE82516C7C6B903",
          "Mac-9F18E312C5C2BF0B",
          "Mac-A369DDC4E67F1C45",
          "Mac-A5C67F76ED83108C",
          "Mac-A61BADE1FDAD7B05",
          "Mac-AA95B1DDAB278B95",
          "Mac-AF89B6D9451A490B",
          "Mac-B4831CEBD52A0C4C",
          "Mac-B809C3757DA9BB8D",
          "Mac-BE088AF8C5EB4FA2",
          "Mac-BE0E8AC46FE800CC",
          "Mac-C6F71043CEAA02A6",
          "Mac-CAD6701F7CEA0921",
          "Mac-CF21D135A7D34AA6",
          "Mac-CFF7D910A743CAAF",
          "Mac-DB15BD556843C820",
          "Mac-E1008331FDC96864",
          "Mac-E43C1C25D4880AD6",
          "Mac-E7203C0F68AA0004",
          "Mac-EE2EBD4B90B839A8",
          "Mac-F305150B0C7DEEEF",
          "Mac-F60DEB81FF30ACF6",
          "Mac-FA842E06C61E91C5",
          "Mac-FFE5EF870D7BA81A",
          "VMM-x86_64",
          "X589AMLUAP",
          "X589ICLYAP",
          "X86LEGACYAP"
        ]
      },
      {
        "ExpirationDate": "yyyy-mm-dd",
        "PostingDate": "2023-01-23",
        "ProductVersion": "12.6.3",
        "SupportedDevices": [
          "J132AP",
          "J137AP",
          "J140AAP",
          "J140KAP",
          "J152FAP",
          "J160AP",
          "J174AP",
          "J185AP",
          "J185FAP",
          "J213AP",
          "J214KAP",
          "J215AP",
          "J223AP",
          "J230KAP",
          "J274AP",
          "J293AP",
          "J313AP",
          "J314cAP",
          "J314sAP",
          "J316cAP",
          "J316sAP",
          "J375cAP",
          "J375dAP",
          "J413AP",
          "J456AP",
          "J457AP",
          "J493AP",
          "J680AP",
          "J780AP",
          "Mac-06F11F11946D27C5",
          "Mac-06F11FD93F0323C5",
          "Mac-1E7E29AD0135F9BC",
          "Mac-35C5E08120C7EEAF",
          "Mac-473D31EABEB93F9B",
          "Mac-4B682C642B45593E",
          "Mac-551B86E5744E2388",
          "Mac-63001698E7A34814",
          "Mac-65CE76090165799A",
          "Mac-66E35819EE2D0D05",
          "Mac-77F17D7DA9285301",
          "Mac-937A206F2EE63C01",
          "Mac-937CB26E2E02BB01",
          "Mac-9AE82516C7C6B903",
          "Mac-9F18E312C5C2BF0B",
          "Mac-A369DDC4E67F1C45",
          "Mac-A5C67F76ED83108C",
          "Mac-AA95B1DDAB278B95",
          "Mac-B4831CEBD52A0C4C",
          "Mac-B809C3757DA9BB8D",
          "Mac-BE088AF8C5EB4FA2",
          "Mac-CAD6701F7CEA0921",
          "Mac-DB15BD556843C820",
          "Mac-E43C1C25D4880AD6",
          "Mac-EE2EBD4B90B839A8",
          "Mac-F60DEB81FF30ACF6",
          "Mac-FFE5EF870D7BA81A",
          "VMA2MACOSAP",
          "VMM-x86_64"
        ]
      },
      {
        "ExpirationDate": "yyyy-mm-dd",
        "PostingDate": "2023-01-23",
        "ProductVersion": "13.2",
        "SupportedDevices": [
          "J132AP",
          "J137AP",
          "J140AAP",
          "J140KAP",
          "J152FAP",
          "J160AP",
          "J174AP",
          "J185AP",
          "J185FAP",
          "J213AP",
          "J214KAP",
          "J215AP",
          "J223AP",
          "J230KAP",
          "J274AP",
          "J293AP",
          "J313AP",
          "J314cAP",
          "J314sAP",
          "J316cAP",
          "J316sAP",
          "J375cAP",
          "J375dAP",
          "J413AP",
          "J414cAP",
          "J414sAP",
          "J416cAP",
          "J416sAP",
          "J456AP",
          "J457AP",
          "J473AP",
          "J474sAP",
          "J493AP",
          "J680AP",
          "J780AP",
          "Mac-1E7E29AD0135F9BC",
          "Mac-4B682C642B45593E",
          "Mac-551B86E5744E2388",
          "Mac-63001698E7A34814",
          "Mac-77F17D7DA9285301",
          "Mac-937A206F2EE63C01",
          "Mac-AA95B1DDAB278B95",
          "Mac-B4831CEBD52A0C4C",
          "Mac-BE088AF8C5EB4FA2",
          "Mac-CAD6701F7CEA0921",
          "Mac-EE2EBD4B90B839A8",
          "VMA2MACOSAP",
          "VMM-x86_64"
        ]
      }
    ]
  }
}